%YAML 1.1
%TAG !u! tag:unity3d.com,2011:
--- !u!65 &8803958458631656150
BoxCollider:
  m_ObjectHideFlags: 0
  m_CorrespondingSourceObject: {fileID: 0}
  m_PrefabInstance: {fileID: 0}
  m_PrefabAsset: {fileID: 0}
  m_GameObject: {fileID: 4439457278722782123}
  m_Material: {fileID: 0}
  m_IsTrigger: 0
  m_Enabled: 1
  serializedVersion: 2
  m_Size: {x: 0.24727339, y: 0.2564853, z: 0.72732395}
  m_Center: {x: 0.38439116, y: -0.37980762, z: 0.36366197}
--- !u!1 &8257568563565951251
GameObject:
  m_ObjectHideFlags: 0
  m_CorrespondingSourceObject: {fileID: 0}
  m_PrefabInstance: {fileID: 0}
  m_PrefabAsset: {fileID: 0}
  serializedVersion: 6
  m_Component:
  - component: {fileID: 2931763131273229423}
  m_Layer: 0
  m_Name: Wall_corner
  m_TagString: Untagged
  m_Icon: {fileID: 0}
  m_NavMeshLayer: 0
  m_StaticEditorFlags: 0
  m_IsActive: 1
--- !u!4 &2931763131273229423
Transform:
  m_ObjectHideFlags: 0
  m_CorrespondingSourceObject: {fileID: 0}
  m_PrefabInstance: {fileID: 0}
  m_PrefabAsset: {fileID: 0}
  m_GameObject: {fileID: 8257568563565951251}
  m_LocalRotation: {x: -0, y: -0, z: -0, w: 1}
  m_LocalPosition: {x: 0, y: 0, z: 0}
  m_LocalScale: {x: 1, y: 1, z: 1}
  m_Children:
  - {fileID: 6530434922089054683}
  m_Father: {fileID: 0}
  m_RootOrder: 0
  m_LocalEulerAnglesHint: {x: 0, y: 0, z: 0}
--- !u!1001 &6713312933064074800
PrefabInstance:
  m_ObjectHideFlags: 0
  serializedVersion: 2
  m_Modification:
    m_TransformParent: {fileID: 2931763131273229423}
    m_Modifications:
    - target: {fileID: -8679921383154817045, guid: bd7a96b59a7669c4a963f42101b2f29d, type: 3}
      propertyPath: m_LocalPosition.x
      value: 1
      objectReference: {fileID: 0}
    - target: {fileID: -8679921383154817045, guid: bd7a96b59a7669c4a963f42101b2f29d, type: 3}
      propertyPath: m_LocalPosition.y
      value: 0
      objectReference: {fileID: 0}
    - target: {fileID: -8679921383154817045, guid: bd7a96b59a7669c4a963f42101b2f29d, type: 3}
      propertyPath: m_LocalPosition.z
      value: 0
      objectReference: {fileID: 0}
    - target: {fileID: -8679921383154817045, guid: bd7a96b59a7669c4a963f42101b2f29d, type: 3}
      propertyPath: m_LocalRotation.x
      value: 0
      objectReference: {fileID: 0}
    - target: {fileID: -8679921383154817045, guid: bd7a96b59a7669c4a963f42101b2f29d, type: 3}
      propertyPath: m_LocalRotation.y
      value: 0
      objectReference: {fileID: 0}
    - target: {fileID: -8679921383154817045, guid: bd7a96b59a7669c4a963f42101b2f29d, type: 3}
      propertyPath: m_LocalRotation.z
      value: 0
      objectReference: {fileID: 0}
    - target: {fileID: -8679921383154817045, guid: bd7a96b59a7669c4a963f42101b2f29d, type: 3}
      propertyPath: m_LocalRotation.w
      value: 1
      objectReference: {fileID: 0}
    - target: {fileID: -8679921383154817045, guid: bd7a96b59a7669c4a963f42101b2f29d, type: 3}
      propertyPath: m_RootOrder
      value: 0
      objectReference: {fileID: 0}
    - target: {fileID: -8679921383154817045, guid: bd7a96b59a7669c4a963f42101b2f29d, type: 3}
      propertyPath: m_LocalEulerAnglesHint.x
      value: 0
      objectReference: {fileID: 0}
    - target: {fileID: -8679921383154817045, guid: bd7a96b59a7669c4a963f42101b2f29d, type: 3}
      propertyPath: m_LocalEulerAnglesHint.y
      value: 0
      objectReference: {fileID: 0}
    - target: {fileID: -8679921383154817045, guid: bd7a96b59a7669c4a963f42101b2f29d, type: 3}
      propertyPath: m_LocalEulerAnglesHint.z
      value: 0
      objectReference: {fileID: 0}
    - target: {fileID: -8679921383154817045, guid: bd7a96b59a7669c4a963f42101b2f29d, type: 3}
      propertyPath: m_LocalScale.y
      value: 1.3912799
      objectReference: {fileID: 0}
    - target: {fileID: -2422315340263230684, guid: bd7a96b59a7669c4a963f42101b2f29d, type: 3}
      propertyPath: m_IsActive
      value: 0
      objectReference: {fileID: 0}
    - target: {fileID: 919132149155446097, guid: bd7a96b59a7669c4a963f42101b2f29d, type: 3}
      propertyPath: m_Name
      value: Corner
      objectReference: {fileID: 0}
    m_RemovedComponents: []
  m_SourcePrefab: {fileID: 100100000, guid: bd7a96b59a7669c4a963f42101b2f29d, type: 3}
--- !u!4 &6530434922089054683 stripped
Transform:
  m_CorrespondingSourceObject: {fileID: -8679921383154817045, guid: bd7a96b59a7669c4a963f42101b2f29d, type: 3}
  m_PrefabInstance: {fileID: 6713312933064074800}
  m_PrefabAsset: {fileID: 0}
--- !u!1 &4439457278722782123 stripped
GameObject:
  m_CorrespondingSourceObject: {fileID: -2254504247542753893, guid: bd7a96b59a7669c4a963f42101b2f29d, type: 3}
  m_PrefabInstance: {fileID: 6713312933064074800}
  m_PrefabAsset: {fileID: 0}
