%YAML 1.1
%TAG !u! tag:unity3d.com,2011:
--- !u!1001 &7688078962338393568
PrefabInstance:
  m_ObjectHideFlags: 0
  serializedVersion: 2
  m_Modification:
    m_TransformParent: {fileID: 0}
    m_Modifications:
    - target: {fileID: 8315909902695608116, guid: 4180d0b13e6a8544bb3652933c2cdc17, type: 3}
      propertyPath: m_Name
      value: stool_Short
      objectReference: {fileID: 0}
    - target: {fileID: 8657004061165581710, guid: 4180d0b13e6a8544bb3652933c2cdc17, type: 3}
      propertyPath: m_LocalPosition.x
      value: -24.751703
      objectReference: {fileID: 0}
    - target: {fileID: 8657004061165581710, guid: 4180d0b13e6a8544bb3652933c2cdc17, type: 3}
      propertyPath: m_LocalPosition.y
      value: 0.186
      objectReference: {fileID: 0}
    - target: {fileID: 8657004061165581710, guid: 4180d0b13e6a8544bb3652933c2cdc17, type: 3}
      propertyPath: m_LocalPosition.z
      value: -6.990912
      objectReference: {fileID: 0}
    - target: {fileID: 8657004061165581710, guid: 4180d0b13e6a8544bb3652933c2cdc17, type: 3}
      propertyPath: m_LocalRotation.x
      value: -0.7071068
      objectReference: {fileID: 0}
    - target: {fileID: 8657004061165581710, guid: 4180d0b13e6a8544bb3652933c2cdc17, type: 3}
      propertyPath: m_LocalRotation.y
      value: 0
      objectReference: {fileID: 0}
    - target: {fileID: 8657004061165581710, guid: 4180d0b13e6a8544bb3652933c2cdc17, type: 3}
      propertyPath: m_LocalRotation.z
      value: 0
      objectReference: {fileID: 0}
    - target: {fileID: 8657004061165581710, guid: 4180d0b13e6a8544bb3652933c2cdc17, type: 3}
      propertyPath: m_LocalRotation.w
      value: 0.7071068
      objectReference: {fileID: 0}
    - target: {fileID: 8657004061165581710, guid: 4180d0b13e6a8544bb3652933c2cdc17, type: 3}
      propertyPath: m_RootOrder
      value: 0
      objectReference: {fileID: 0}
    - target: {fileID: 8657004061165581710, guid: 4180d0b13e6a8544bb3652933c2cdc17, type: 3}
      propertyPath: m_LocalEulerAnglesHint.x
      value: -90
      objectReference: {fileID: 0}
    - target: {fileID: 8657004061165581710, guid: 4180d0b13e6a8544bb3652933c2cdc17, type: 3}
      propertyPath: m_LocalEulerAnglesHint.y
      value: 0
      objectReference: {fileID: 0}
    - target: {fileID: 8657004061165581710, guid: 4180d0b13e6a8544bb3652933c2cdc17, type: 3}
      propertyPath: m_LocalEulerAnglesHint.z
      value: 0
      objectReference: {fileID: 0}
    - target: {fileID: 8657004061165581710, guid: 4180d0b13e6a8544bb3652933c2cdc17, type: 3}
      propertyPath: m_LocalScale.z
      value: 0.460448
      objectReference: {fileID: 0}
    m_RemovedComponents: []
  m_SourcePrefab: {fileID: 100100000, guid: 4180d0b13e6a8544bb3652933c2cdc17, type: 3}
