%YAML 1.1
%TAG !u! tag:unity3d.com,2011:
--- !u!1001 &1444909781198213464
PrefabInstance:
  m_ObjectHideFlags: 0
  serializedVersion: 2
  m_Modification:
    m_TransformParent: {fileID: 0}
    m_Modifications:
    - target: {fileID: -8679921383154817045, guid: 47c09e39cf520ae4a84aebf812951b41, type: 3}
      propertyPath: m_LocalPosition.x
      value: -24.2093
      objectReference: {fileID: 0}
    - target: {fileID: -8679921383154817045, guid: 47c09e39cf520ae4a84aebf812951b41, type: 3}
      propertyPath: m_LocalPosition.y
      value: 0.4567
      objectReference: {fileID: 0}
    - target: {fileID: -8679921383154817045, guid: 47c09e39cf520ae4a84aebf812951b41, type: 3}
      propertyPath: m_LocalPosition.z
      value: -6.454
      objectReference: {fileID: 0}
    - target: {fileID: -8679921383154817045, guid: 47c09e39cf520ae4a84aebf812951b41, type: 3}
      propertyPath: m_LocalRotation.x
      value: 0.00000008146034
      objectReference: {fileID: 0}
    - target: {fileID: -8679921383154817045, guid: 47c09e39cf520ae4a84aebf812951b41, type: 3}
      propertyPath: m_LocalRotation.y
      value: -0
      objectReference: {fileID: 0}
    - target: {fileID: -8679921383154817045, guid: 47c09e39cf520ae4a84aebf812951b41, type: 3}
      propertyPath: m_LocalRotation.z
      value: -0
      objectReference: {fileID: 0}
    - target: {fileID: -8679921383154817045, guid: 47c09e39cf520ae4a84aebf812951b41, type: 3}
      propertyPath: m_LocalRotation.w
      value: 1
      objectReference: {fileID: 0}
    - target: {fileID: -8679921383154817045, guid: 47c09e39cf520ae4a84aebf812951b41, type: 3}
      propertyPath: m_RootOrder
      value: 0
      objectReference: {fileID: 0}
    - target: {fileID: -8679921383154817045, guid: 47c09e39cf520ae4a84aebf812951b41, type: 3}
      propertyPath: m_LocalEulerAnglesHint.x
      value: 0
      objectReference: {fileID: 0}
    - target: {fileID: -8679921383154817045, guid: 47c09e39cf520ae4a84aebf812951b41, type: 3}
      propertyPath: m_LocalEulerAnglesHint.y
      value: 0
      objectReference: {fileID: 0}
    - target: {fileID: -8679921383154817045, guid: 47c09e39cf520ae4a84aebf812951b41, type: 3}
      propertyPath: m_LocalEulerAnglesHint.z
      value: 0
      objectReference: {fileID: 0}
    - target: {fileID: -8679921383154817045, guid: 47c09e39cf520ae4a84aebf812951b41, type: 3}
      propertyPath: m_LocalScale.x
      value: 0.05
      objectReference: {fileID: 0}
    - target: {fileID: -8679921383154817045, guid: 47c09e39cf520ae4a84aebf812951b41, type: 3}
      propertyPath: m_LocalScale.y
      value: 0.05
      objectReference: {fileID: 0}
    - target: {fileID: -8679921383154817045, guid: 47c09e39cf520ae4a84aebf812951b41, type: 3}
      propertyPath: m_LocalScale.z
      value: 0.05
      objectReference: {fileID: 0}
    - target: {fileID: -7511558181221131132, guid: 47c09e39cf520ae4a84aebf812951b41, type: 3}
      propertyPath: m_Materials.Array.data[0]
      value: 
      objectReference: {fileID: 2100000, guid: b259b2eabd9280849af489a0a4714848, type: 2}
    - target: {fileID: 919132149155446097, guid: 47c09e39cf520ae4a84aebf812951b41, type: 3}
      propertyPath: m_Name
      value: Crayon_Yellow
      objectReference: {fileID: 0}
    m_RemovedComponents: []
  m_SourcePrefab: {fileID: 100100000, guid: 47c09e39cf520ae4a84aebf812951b41, type: 3}
